<?xml version="1.0" standalone="no"?>
<!DOCTYPE svg PUBLIC "-//W3C//DTD SVG 20010904//EN"
 "http://www.w3.org/TR/2001/REC-SVG-20010904/DTD/svg10.dtd">
<svg version="1.0" xmlns="http://www.w3.org/2000/svg"
 width="700.000000pt" height="700.000000pt" viewBox="0 0 700.000000 700.000000"
 preserveAspectRatio="xMidYMid meet">
<metadata>
Created by potrace 1.11, written by Peter Selinger 2001-2013
</metadata>
<g transform="translate(0.000000,700.000000) scale(0.100000,-0.100000)"
fill="#000000" stroke="none">
<path d="M6545 6941 c-3 -2 -5 -53 -5 -113 0 -96 -2 -108 -17 -109 -10 0 -62
-1 -116 -1 l-98 -1 3 -115 3 -115 113 2 112 1 0 -114 0 -115 43 -3 c23 -2 75
-2 115 0 l72 4 0 113 0 114 78 0 c42 0 94 0 115 0 l37 1 0 114 0 113 -102 1
c-57 0 -109 0 -115 1 -10 1 -13 31 -13 114 l0 114 -110 0 c-61 -1 -113 -3
-115 -6z m225 -338 l0 -113 -40 -1 c-22 0 -69 0 -105 0 -36 0 -69 0 -75 0 -6
1 -10 46 -10 115 l0 114 115 -1 115 0 0 -114z"/>
<path d="M3805 6907 c-2 -7 -6 -29 -8 -50 -3 -21 -7 -40 -9 -42 -2 -2 -37 0
-78 4 -41 5 -169 8 -285 6 -182 -3 -265 -9 -400 -30 -16 -3 -48 -8 -70 -11
-22 -3 -53 -9 -70 -14 -16 -5 -45 -12 -62 -15 -62 -10 -269 -77 -378 -122
-530 -216 -961 -611 -1198 -1097 -93 -190 -164 -412 -183 -571 -4 -27 -8 -53
-10 -56 -23 -40 -22 -520 1 -641 3 -12 8 -43 11 -68 3 -25 8 -54 10 -65 3 -11
7 -36 10 -55 10 -63 53 -253 74 -330 11 -41 23 -86 26 -99 12 -54 120 -367
176 -506 87 -217 248 -538 393 -785 70 -118 135 -228 145 -245 252 -433 389
-719 460 -956 33 -111 48 -209 32 -209 -20 0 -83 -62 -103 -101 -35 -70 -20
-187 33 -249 21 -25 72 -58 102 -66 27 -6 28 -16 1 -20 -110 -16 -188 -115
-184 -234 4 -100 62 -183 152 -214 27 -9 280 -12 1059 -11 l1023 1 40 22 c93
50 128 107 129 208 1 62 -3 77 -29 119 -37 59 -66 81 -136 105 -30 10 -45 19
-33 19 34 1 113 60 139 105 29 50 40 121 26 173 -14 53 -62 117 -99 134 -27
12 -30 17 -26 48 4 31 11 72 20 106 2 6 5 20 8 32 7 33 77 235 88 256 6 13 17
17 31 13 19 -4 28 7 68 92 45 95 46 96 26 112 -19 16 -19 18 29 111 27 52 50
96 52 98 1 3 16 -3 31 -12 l29 -17 33 53 c18 28 36 54 39 57 14 13 50 70 50
79 0 6 -8 15 -17 20 -48 28 -48 25 2 112 75 132 65 124 113 89 l41 -29 67 99
c37 55 66 101 63 103 -2 1 -23 15 -46 30 -47 30 -49 34 -29 62 14 21 60 103
83 147 l14 27 49 -29 49 -29 14 22 c15 23 97 184 97 190 0 2 -23 14 -51 26
-39 18 -49 27 -44 40 4 9 8 21 9 27 1 7 6 18 12 25 6 8 23 44 38 81 l28 67 53
-24 53 -23 20 46 c11 26 31 77 45 113 l25 66 -54 18 c-42 14 -53 22 -49 34 65
165 177 552 210 726 32 170 52 306 54 377 1 14 10 15 61 11 l60 -5 1 39 c1 21
3 75 5 121 l3 82 -59 0 -60 0 -1 68 c0 37 -2 91 -5 120 l-4 52 38 2 c62 2 65
3 69 15 5 15 -31 221 -41 230 -2 2 -21 0 -43 -6 -55 -16 -73 -14 -73 7 0 10
-13 59 -29 109 l-28 91 46 17 c25 10 49 20 53 24 6 5 -72 205 -86 218 -2 3
-26 -5 -52 -16 -26 -12 -51 -18 -54 -14 -4 5 -24 40 -45 78 -21 39 -44 80 -52
92 -14 20 -12 23 29 49 24 16 45 30 47 31 3 2 -21 40 -53 86 -82 119 -86 123
-94 111 -4 -5 -23 -22 -43 -37 l-35 -27 -58 70 c-32 39 -61 70 -65 70 -3 0
-11 8 -18 19 -10 16 -6 24 28 58 l39 40 -76 69 c-114 102 -106 100 -140 54
-16 -22 -33 -40 -39 -40 -5 0 -26 14 -45 30 -19 17 -59 47 -88 67 -58 40 -57
29 -7 106 15 23 14 25 -40 60 -30 21 -57 37 -60 37 -4 0 -23 11 -43 25 -20 14
-40 25 -44 25 -4 0 -19 -20 -34 -45 -14 -25 -27 -45 -29 -45 -2 0 -44 20 -94
45 -50 25 -95 45 -101 45 -13 0 -6 28 17 73 14 28 11 47 -9 47 -5 0 -24 6 -41
14 -18 8 -61 25 -95 37 -72 25 -74 24 -93 -44 -7 -29 -14 -37 -27 -33 -9 3
-60 17 -112 31 -52 15 -96 28 -97 29 -2 1 3 26 11 54 l13 51 -26 5 c-31 6
-133 23 -179 30 -20 3 -35 0 -37 -7z"/>
<path d="M230 635 l0 -115 -115 0 -115 0 0 -115 0 -115 115 0 115 0 0 -115 0
-115 115 0 115 0 0 115 0 115 115 0 115 0 0 115 0 115 -115 0 -115 0 0 115 0
115 -115 0 -115 0 0 -115z m230 -230 l0 -115 -115 0 -115 0 0 115 0 115 115 0
115 0 0 -115z"/>
</g>
</svg>
